{
  "annotations": {
    "list": [
      {
        "builtIn": 1,
        "datasource": {
          "type": "grafana",
          "uid": "-- Grafana --"
        },
        "enable": true,
        "hide": true,
        "iconColor": "rgba(0, 211, 255, 1)",
        "name": "Annotations & Alerts",
        "target": {
          "limit": 100,
          "matchAny": false,
          "tags": [],
          "type": "dashboard"
        },
        "type": "dashboard"
      }
    ]
  },
  "editable": true,
  "fiscalYearStartMonth": 0,
  "graphTooltip": 0,
  "id": 5396,
  "links": [],
  "liveNow": false,
  "panels": [
    {
      "datasource": {
        "type": "influxdb",
        "uid": "000009465"
      },
      "gridPos": {
        "h": 3,
        "w": 24,
        "x": 0,
        "y": 0
      },
      "id": 88,
      "options": {
        "code": {
          "language": "plaintext",
          "showLineNumbers": false,
          "showMiniMap": false
        },
        "content": "When querying over long time ranges, grafana aggregates (sums) `Metric` over larger time bins than the default ElasticSearch/OpenSearch ones (15m) to lower the number of data points\nit has to plot.\n\nTo account for this, `Metric` is calculated as the `Metric` per 15min, regardless of the actual bin size displayed",
        "mode": "markdown"
      },
      "pluginVersion": "10.1.5",
      "title": "Note",
      "type": "text"
    },
    {
      "collapsed": false,
      "gridPos": {
        "h": 1,
        "w": 24,
        "x": 0,
        "y": 3
      },
      "id": 8,
      "panels": [],
      "repeat": "query0",
      "title": "$query0",
      "type": "row"
    },
    {
      "datasource": {
        "type": "elasticsearch",
        "uid": "iHcJcc-7z"
      },
      "fieldConfig": {
        "defaults": {
          "color": {
            "mode": "palette-classic"
          },
          "custom": {
            "axisCenteredZero": false,
            "axisColorMode": "text",
            "axisLabel": "Jobs",
            "axisPlacement": "auto",
            "barAlignment": 0,
            "drawStyle": "line",
            "fillOpacity": 20,
            "gradientMode": "none",
            "hideFrom": {
              "legend": false,
              "tooltip": false,
              "viz": false
            },
            "insertNulls": false,
            "lineInterpolation": "linear",
            "lineWidth": 1,
            "pointSize": 5,
            "scaleDistribution": {
              "type": "linear"
            },
            "showPoints": "auto",
            "spanNulls": false,
            "stacking": {
              "group": "A",
              "mode": "normal"
            },
            "thresholdsStyle": {
              "mode": "off"
            }
          },
          "mappings": [],
          "thresholds": {
            "mode": "absolute",
            "steps": [
              {
                "color": "green",
                "value": null
              },
              {
                "color": "red",
                "value": 80
              }
            ]
          },
          "unit": "si:"
        },
        "overrides": []
      },
      "gridPos": {
        "h": 12,
        "w": 8,
        "x": 0,
        "y": 4
      },
      "id": 2,
      "options": {
        "legend": {
          "calcs": [
            "max",
            "mean",
            "sum"
          ],
          "displayMode": "table",
          "placement": "bottom",
          "showLegend": true
        },
        "tooltip": {
          "mode": "multi",
          "sort": "desc"
        }
      },
      "targets": [
        {
          "alias": "",
          "bucketAggs": [
            {
              "field": "$query0",
              "id": "3",
              "settings": {
                "min_doc_count": "1",
                "order": "desc",
                "orderBy": "1",
                "size": "0"
              },
              "type": "terms"
            },
            {
              "field": "timestamp",
              "id": "2",
              "settings": {
                "interval": "auto"
              },
              "type": "date_histogram"
            }
          ],
          "datasource": {
            "type": "elasticsearch",
            "uid": "iHcJcc-7z"
          },
          "hide": false,
          "metrics": [
            {
              "field": "Jobs",
              "id": "1",
              "settings": {
                "script": "_value * 3600 / $__interval_ms * 250"
              },
              "type": "sum"
            }
          ],
          "query": "Status: Checking",
          "refId": "A",
          "timeField": "timestamp"
        }
      ],
      "title": "Checking Jobs (ES)",
      "type": "timeseries"
    },
    {
      "datasource": {
        "type": "elasticsearch",
        "uid": "iHcJcc-7z"
      },
      "fieldConfig": {
        "defaults": {
          "color": {
            "mode": "palette-classic"
          },
          "custom": {
            "axisCenteredZero": false,
            "axisColorMode": "text",
            "axisLabel": "Jobs",
            "axisPlacement": "auto",
            "barAlignment": 0,
            "drawStyle": "line",
            "fillOpacity": 20,
            "gradientMode": "none",
            "hideFrom": {
              "legend": false,
              "tooltip": false,
              "viz": false
            },
            "insertNulls": false,
            "lineInterpolation": "linear",
            "lineWidth": 1,
            "pointSize": 5,
            "scaleDistribution": {
              "type": "linear"
            },
            "showPoints": "auto",
            "spanNulls": false,
            "stacking": {
              "group": "A",
              "mode": "normal"
            },
            "thresholdsStyle": {
              "mode": "off"
            }
          },
          "mappings": [],
          "thresholds": {
            "mode": "absolute",
            "steps": [
              {
                "color": "green",
                "value": null
              },
              {
                "color": "red",
                "value": 80
              }
            ]
          },
          "unit": "si:"
        },
        "overrides": []
      },
      "gridPos": {
        "h": 12,
        "w": 8,
        "x": 8,
        "y": 4
      },
      "id": 3,
      "options": {
        "legend": {
          "calcs": [
            "max",
            "mean",
            "sum"
          ],
          "displayMode": "table",
          "placement": "bottom",
          "showLegend": true
        },
        "tooltip": {
          "mode": "multi",
          "sort": "desc"
        }
      },
      "targets": [
        {
          "alias": "",
          "bucketAggs": [
            {
              "field": "$query0",
              "id": "3",
              "settings": {
                "min_doc_count": "1",
                "order": "desc",
                "orderBy": "1",
                "size": "0"
              },
              "type": "terms"
            },
            {
              "field": "timestamp",
              "id": "2",
              "settings": {
                "interval": "auto"
              },
              "type": "date_histogram"
            }
          ],
          "datasource": {
            "type": "elasticsearch",
            "uid": "iHcJcc-7z"
          },
          "metrics": [
            {
              "field": "Jobs",
              "id": "1",
              "settings": {
                "script": "_value * 3600 / $__interval_ms * 250"
              },
              "type": "sum"
            }
          ],
          "query": "Status: Waiting",
          "refId": "A",
          "timeField": "timestamp"
        }
      ],
      "title": "Waiting Jobs (ES)",
      "type": "timeseries"
    },
    {
      "datasource": {
        "type": "elasticsearch",
        "uid": "iHcJcc-7z"
      },
      "fieldConfig": {
        "defaults": {
          "color": {
            "mode": "palette-classic"
          },
          "custom": {
            "axisCenteredZero": false,
            "axisColorMode": "text",
            "axisLabel": "Jobs",
            "axisPlacement": "auto",
            "barAlignment": 0,
            "drawStyle": "line",
            "fillOpacity": 20,
            "gradientMode": "none",
            "hideFrom": {
              "legend": false,
              "tooltip": false,
              "viz": false
            },
            "insertNulls": false,
            "lineInterpolation": "linear",
            "lineWidth": 1,
            "pointSize": 5,
            "scaleDistribution": {
              "type": "linear"
            },
            "showPoints": "auto",
            "spanNulls": false,
            "stacking": {
              "group": "A",
              "mode": "normal"
            },
            "thresholdsStyle": {
              "mode": "off"
            }
          },
          "mappings": [],
          "thresholds": {
            "mode": "absolute",
            "steps": [
              {
                "color": "green",
                "value": null
              },
              {
                "color": "red",
                "value": 80
              }
            ]
          },
          "unit": "si:"
        },
        "overrides": []
      },
      "gridPos": {
        "h": 12,
        "w": 8,
        "x": 16,
        "y": 4
      },
      "id": 4,
      "options": {
        "legend": {
          "calcs": [
            "max",
            "mean",
            "sum"
          ],
          "displayMode": "table",
          "placement": "bottom",
          "showLegend": true
        },
        "tooltip": {
          "mode": "multi",
          "sort": "desc"
        }
      },
      "targets": [
        {
          "alias": "",
          "bucketAggs": [
            {
              "field": "$query0",
              "id": "3",
              "settings": {
                "min_doc_count": "1",
                "order": "desc",
                "orderBy": "1",
                "size": "0"
              },
              "type": "terms"
            },
            {
              "field": "timestamp",
              "id": "2",
              "settings": {
                "interval": "auto"
              },
              "type": "date_histogram"
            }
          ],
          "datasource": {
            "type": "elasticsearch",
            "uid": "iHcJcc-7z"
          },
          "metrics": [
            {
              "field": "Jobs",
              "id": "1",
              "settings": {
                "script": "_value * 3600 / $__interval_ms * 250"
              },
              "type": "sum"
            }
          ],
          "query": "Status: Running",
          "refId": "A",
          "timeField": "timestamp"
        }
      ],
      "title": "Running Jobs (ES)",
      "type": "timeseries"
    },
    {
      "datasource": {
        "type": "elasticsearch",
        "uid": "iHcJcc-7z"
      },
      "fieldConfig": {
        "defaults": {
          "color": {
            "mode": "palette-classic"
          },
          "custom": {
            "axisCenteredZero": false,
            "axisColorMode": "text",
            "axisLabel": "Jobs",
            "axisPlacement": "auto",
            "barAlignment": 0,
            "drawStyle": "line",
            "fillOpacity": 20,
            "gradientMode": "none",
            "hideFrom": {
              "legend": false,
              "tooltip": false,
              "viz": false
            },
            "insertNulls": false,
            "lineInterpolation": "linear",
            "lineWidth": 1,
            "pointSize": 5,
            "scaleDistribution": {
              "type": "linear"
            },
            "showPoints": "auto",
            "spanNulls": false,
            "stacking": {
              "group": "A",
              "mode": "normal"
            },
            "thresholdsStyle": {
              "mode": "off"
            }
          },
          "mappings": [],
          "thresholds": {
            "mode": "absolute",
            "steps": [
              {
                "color": "green",
                "value": null
              },
              {
                "color": "red",
                "value": 80
              }
            ]
          },
          "unit": "si:"
        },
        "overrides": []
      },
      "gridPos": {
        "h": 12,
        "w": 8,
        "x": 0,
        "y": 16
      },
      "id": 5,
      "options": {
        "legend": {
          "calcs": [
            "max",
            "mean",
            "sum"
          ],
          "displayMode": "table",
          "placement": "bottom",
          "showLegend": true
        },
        "tooltip": {
          "mode": "multi",
          "sort": "desc"
        }
      },
      "targets": [
        {
          "alias": "",
          "bucketAggs": [
            {
              "field": "$query0",
              "id": "3",
              "settings": {
                "min_doc_count": "1",
                "order": "desc",
                "orderBy": "1",
                "size": "0"
              },
              "type": "terms"
            },
            {
              "field": "timestamp",
              "id": "2",
              "settings": {
                "interval": "auto",
                "timeZone": "utc"
              },
              "type": "date_histogram"
            }
          ],
          "datasource": {
            "type": "elasticsearch",
            "uid": "iHcJcc-7z"
          },
          "hide": false,
          "metrics": [
            {
              "field": "Jobs",
              "id": "1",
              "settings": {
                "script": "_value * 3600 / $__interval_ms * 250"
              },
              "type": "sum"
            }
          ],
          "query": "Status: Completed",
          "refId": "A",
          "timeField": "timestamp"
        }
      ],
      "title": "Completed Jobs (ES)",
      "type": "timeseries"
    },
    {
      "datasource": {
        "type": "elasticsearch",
        "uid": "iHcJcc-7z"
      },
      "fieldConfig": {
        "defaults": {
          "color": {
            "mode": "palette-classic"
          },
          "custom": {
            "axisCenteredZero": false,
            "axisColorMode": "text",
            "axisLabel": "Jobs",
            "axisPlacement": "auto",
            "barAlignment": 0,
            "drawStyle": "line",
            "fillOpacity": 20,
            "gradientMode": "none",
            "hideFrom": {
              "legend": false,
              "tooltip": false,
              "viz": false
            },
            "insertNulls": false,
            "lineInterpolation": "linear",
            "lineWidth": 1,
            "pointSize": 5,
            "scaleDistribution": {
              "type": "linear"
            },
            "showPoints": "auto",
            "spanNulls": false,
            "stacking": {
              "group": "A",
              "mode": "normal"
            },
            "thresholdsStyle": {
              "mode": "off"
            }
          },
          "mappings": [],
          "thresholds": {
            "mode": "absolute",
            "steps": [
              {
                "color": "green",
                "value": null
              },
              {
                "color": "red",
                "value": 80
              }
            ]
          },
          "unit": "si:"
        },
        "overrides": []
      },
      "gridPos": {
        "h": 12,
        "w": 8,
        "x": 8,
        "y": 16
      },
      "id": 6,
      "options": {
        "legend": {
          "calcs": [
            "max",
            "mean",
            "sum"
          ],
          "displayMode": "table",
          "placement": "bottom",
          "showLegend": true
        },
        "tooltip": {
          "mode": "multi",
          "sort": "desc"
        }
      },
      "targets": [
        {
          "alias": "",
          "bucketAggs": [
            {
              "field": "$query0",
              "id": "3",
              "settings": {
                "min_doc_count": "1",
                "order": "desc",
                "orderBy": "1",
                "size": "0"
              },
              "type": "terms"
            },
            {
              "field": "timestamp",
              "id": "2",
              "settings": {
                "interval": "auto",
                "timeZone": "utc"
              },
              "type": "date_histogram"
            }
          ],
          "datasource": {
            "type": "elasticsearch",
            "uid": "iHcJcc-7z"
          },
          "hide": false,
          "metrics": [
            {
              "field": "Jobs",
              "id": "1",
              "settings": {
                "script": "_value * 3600 / $__interval_ms * 250"
              },
              "type": "sum"
            }
          ],
          "query": "Status: Staging",
          "refId": "A",
          "timeField": "timestamp"
        }
      ],
      "title": "Staging Jobs (ES)",
      "type": "timeseries"
    },
    {
      "collapsed": true,
      "gridPos": {
        "h": 1,
        "w": 24,
        "x": 0,
        "y": 32
      },
      "id": 34,
      "panels": [
        {
          "datasource": {
            "type": "elasticsearch",
            "uid": "iHcJcc-7z"
          },
          "fieldConfig": {
            "defaults": {
              "color": {
                "mode": "palette-classic"
              },
              "custom": {
                "axisLabel": "Jobs",
                "axisPlacement": "auto",
                "barAlignment": 0,
                "drawStyle": "line",
                "fillOpacity": 20,
                "gradientMode": "none",
                "hideFrom": {
                  "legend": false,
                  "tooltip": false,
                  "viz": false
                },
                "lineInterpolation": "linear",
                "lineWidth": 1,
                "pointSize": 5,
                "scaleDistribution": {
                  "type": "linear"
                },
                "showPoints": "auto",
                "spanNulls": false,
                "stacking": {
                  "group": "A",
                  "mode": "normal"
                },
                "thresholdsStyle": {
                  "mode": "off"
                }
              },
              "mappings": [],
              "thresholds": {
                "mode": "absolute",
                "steps": [
                  {
                    "color": "green"
                  },
                  {
                    "color": "red",
                    "value": 80
                  }
                ]
              },
              "unit": "si:"
            },
            "overrides": []
          },
          "gridPos": {
            "h": 12,
            "w": 8,
            "x": 0,
            "y": 14
          },
          "id": 59,
          "options": {
            "legend": {
              "calcs": [
                "max",
                "mean",
                "sum"
              ],
              "displayMode": "table",
              "placement": "bottom",
              "showLegend": true
            },
            "tooltip": {
              "mode": "multi",
              "sort": "desc"
            }
          },
          "targets": [
            {
              "alias": "",
              "bucketAggs": [
                {
                  "field": "User",
                  "id": "3",
                  "settings": {
                    "min_doc_count": "1",
                    "order": "desc",
                    "orderBy": "1",
                    "size": "0"
                  },
                  "type": "terms"
                },
                {
                  "field": "timestamp",
                  "id": "2",
                  "settings": {
                    "interval": "auto"
                  },
                  "type": "date_histogram"
                }
              ],
              "datasource": {
                "type": "elasticsearch",
                "uid": "iHcJcc-7z"
              },
              "hide": false,
              "metrics": [
                {
                  "field": "Jobs",
                  "id": "1",
                  "type": "sum"
                }
              ],
              "query": "Status: Checking AND UserGroup: lhcb_user",
              "refId": "A",
              "timeField": "timestamp"
            }
          ],
          "title": "Checking Jobs (ES)",
          "type": "timeseries"
        },
        {
          "datasource": {
            "type": "elasticsearch",
            "uid": "iHcJcc-7z"
          },
          "fieldConfig": {
            "defaults": {
              "color": {
                "mode": "palette-classic"
              },
              "custom": {
                "axisLabel": "Jobs",
                "axisPlacement": "auto",
                "barAlignment": 0,
                "drawStyle": "line",
                "fillOpacity": 20,
                "gradientMode": "none",
                "hideFrom": {
                  "legend": false,
                  "tooltip": false,
                  "viz": false
                },
                "lineInterpolation": "linear",
                "lineWidth": 1,
                "pointSize": 5,
                "scaleDistribution": {
                  "type": "linear"
                },
                "showPoints": "auto",
                "spanNulls": false,
                "stacking": {
                  "group": "A",
                  "mode": "normal"
                },
                "thresholdsStyle": {
                  "mode": "off"
                }
              },
              "mappings": [],
              "thresholds": {
                "mode": "absolute",
                "steps": [
                  {
                    "color": "green"
                  },
                  {
                    "color": "red",
                    "value": 80
                  }
                ]
              },
              "unit": "si:"
            },
            "overrides": []
          },
          "gridPos": {
            "h": 12,
            "w": 8,
            "x": 8,
            "y": 14
          },
          "id": 60,
          "options": {
            "legend": {
              "calcs": [
                "max",
                "mean",
                "sum"
              ],
              "displayMode": "table",
              "placement": "bottom",
              "showLegend": true
            },
            "tooltip": {
              "mode": "multi",
              "sort": "desc"
            }
          },
          "targets": [
            {
              "alias": "",
              "bucketAggs": [
                {
                  "field": "User",
                  "id": "3",
                  "settings": {
                    "min_doc_count": "1",
                    "order": "desc",
                    "orderBy": "1",
                    "size": "0"
                  },
                  "type": "terms"
                },
                {
                  "field": "timestamp",
                  "id": "2",
                  "settings": {
                    "interval": "auto"
                  },
                  "type": "date_histogram"
                }
              ],
              "datasource": {
                "type": "elasticsearch",
                "uid": "iHcJcc-7z"
              },
              "metrics": [
                {
                  "field": "Jobs",
                  "id": "1",
                  "type": "sum"
                }
              ],
              "query": "Status: Waiting AND UserGroup: lhcb_user",
              "refId": "A",
              "timeField": "timestamp"
            }
          ],
          "title": "Waiting Jobs (ES)",
          "type": "timeseries"
        },
        {
          "datasource": {
            "type": "elasticsearch",
            "uid": "iHcJcc-7z"
          },
          "fieldConfig": {
            "defaults": {
              "color": {
                "mode": "palette-classic"
              },
              "custom": {
                "axisLabel": "Jobs",
                "axisPlacement": "auto",
                "barAlignment": 0,
                "drawStyle": "line",
                "fillOpacity": 20,
                "gradientMode": "none",
                "hideFrom": {
                  "legend": false,
                  "tooltip": false,
                  "viz": false
                },
                "lineInterpolation": "linear",
                "lineWidth": 1,
                "pointSize": 5,
                "scaleDistribution": {
                  "type": "linear"
                },
                "showPoints": "auto",
                "spanNulls": false,
                "stacking": {
                  "group": "A",
                  "mode": "normal"
                },
                "thresholdsStyle": {
                  "mode": "off"
                }
              },
              "mappings": [],
              "thresholds": {
                "mode": "absolute",
                "steps": [
                  {
                    "color": "green"
                  },
                  {
                    "color": "red",
                    "value": 80
                  }
                ]
              },
              "unit": "si:"
            },
            "overrides": []
          },
          "gridPos": {
            "h": 12,
            "w": 8,
            "x": 16,
            "y": 14
          },
          "id": 62,
          "options": {
            "legend": {
              "calcs": [
                "max",
                "mean",
                "sum"
              ],
              "displayMode": "table",
              "placement": "bottom",
              "showLegend": true
            },
            "tooltip": {
              "mode": "multi",
              "sort": "desc"
            }
          },
          "targets": [
            {
              "alias": "",
              "bucketAggs": [
                {
                  "field": "User",
                  "id": "3",
                  "settings": {
                    "min_doc_count": "1",
                    "order": "desc",
                    "orderBy": "1",
                    "size": "0"
                  },
                  "type": "terms"
                },
                {
                  "field": "timestamp",
                  "id": "2",
                  "settings": {
                    "interval": "auto"
                  },
                  "type": "date_histogram"
                }
              ],
              "datasource": {
                "type": "elasticsearch",
                "uid": "iHcJcc-7z"
              },
              "metrics": [
                {
                  "field": "Jobs",
                  "id": "1",
                  "type": "sum"
                }
              ],
              "query": "Status: Running AND UserGroup: lhcb_user",
              "refId": "A",
              "timeField": "timestamp"
            }
          ],
          "title": "Running Jobs (ES)",
          "type": "timeseries"
        },
        {
          "datasource": {
            "type": "elasticsearch",
            "uid": "iHcJcc-7z"
          },
          "fieldConfig": {
            "defaults": {
              "color": {
                "mode": "palette-classic"
              },
              "custom": {
                "axisLabel": "Jobs",
                "axisPlacement": "auto",
                "barAlignment": 0,
                "drawStyle": "line",
                "fillOpacity": 20,
                "gradientMode": "none",
                "hideFrom": {
                  "legend": false,
                  "tooltip": false,
                  "viz": false
                },
                "lineInterpolation": "linear",
                "lineWidth": 1,
                "pointSize": 5,
                "scaleDistribution": {
                  "type": "linear"
                },
                "showPoints": "auto",
                "spanNulls": false,
                "stacking": {
                  "group": "A",
                  "mode": "normal"
                },
                "thresholdsStyle": {
                  "mode": "off"
                }
              },
              "mappings": [],
              "thresholds": {
                "mode": "absolute",
                "steps": [
                  {
                    "color": "green"
                  },
                  {
                    "color": "red",
                    "value": 80
                  }
                ]
              },
              "unit": "si:"
            },
            "overrides": []
          },
          "gridPos": {
            "h": 12,
            "w": 8,
            "x": 0,
            "y": 26
          },
          "id": 61,
          "options": {
            "legend": {
              "calcs": [
                "max",
                "mean",
                "sum"
              ],
              "displayMode": "table",
              "placement": "bottom",
              "showLegend": true
            },
            "tooltip": {
              "mode": "multi",
              "sort": "desc"
            }
          },
          "targets": [
            {
              "alias": "",
              "bucketAggs": [
                {
                  "field": "User",
                  "id": "3",
                  "settings": {
                    "min_doc_count": "1",
                    "order": "desc",
                    "orderBy": "1",
                    "size": "0"
                  },
                  "type": "terms"
                },
                {
                  "field": "timestamp",
                  "id": "2",
                  "settings": {
                    "interval": "auto",
                    "timeZone": "utc"
                  },
                  "type": "date_histogram"
                }
              ],
              "datasource": {
                "type": "elasticsearch",
                "uid": "iHcJcc-7z"
              },
              "hide": false,
              "metrics": [
                {
                  "field": "Jobs",
                  "id": "1",
                  "type": "sum"
                }
              ],
              "query": "Status: Completed AND UserGroup: lhcb_user",
              "refId": "A",
              "timeField": "timestamp"
            }
          ],
          "title": "Completed Jobs (ES)",
          "type": "timeseries"
        },
        {
          "datasource": {
            "type": "elasticsearch",
            "uid": "iHcJcc-7z"
          },
          "fieldConfig": {
            "defaults": {
              "color": {
                "mode": "palette-classic"
              },
              "custom": {
                "axisLabel": "Jobs",
                "axisPlacement": "auto",
                "barAlignment": 0,
                "drawStyle": "line",
                "fillOpacity": 20,
                "gradientMode": "none",
                "hideFrom": {
                  "legend": false,
                  "tooltip": false,
                  "viz": false
                },
                "lineInterpolation": "linear",
                "lineWidth": 1,
                "pointSize": 5,
                "scaleDistribution": {
                  "type": "linear"
                },
                "showPoints": "auto",
                "spanNulls": false,
                "stacking": {
                  "group": "A",
                  "mode": "normal"
                },
                "thresholdsStyle": {
                  "mode": "off"
                }
              },
              "mappings": [],
              "thresholds": {
                "mode": "absolute",
                "steps": [
                  {
                    "color": "green"
                  },
                  {
                    "color": "red",
                    "value": 80
                  }
                ]
              },
              "unit": "si:"
            },
            "overrides": []
          },
          "gridPos": {
            "h": 12,
            "w": 8,
            "x": 8,
            "y": 26
          },
          "id": 63,
          "options": {
            "legend": {
              "calcs": [
                "max",
                "mean",
                "sum"
              ],
              "displayMode": "table",
              "placement": "bottom",
              "showLegend": true
            },
            "tooltip": {
              "mode": "multi",
              "sort": "desc"
            }
          },
          "targets": [
            {
              "alias": "",
              "bucketAggs": [
                {
                  "field": "User",
                  "id": "3",
                  "settings": {
                    "min_doc_count": "1",
                    "order": "desc",
                    "orderBy": "1",
                    "size": "0"
                  },
                  "type": "terms"
                },
                {
                  "field": "timestamp",
                  "id": "2",
                  "settings": {
                    "interval": "auto",
                    "timeZone": "utc"
                  },
                  "type": "date_histogram"
                }
              ],
              "datasource": {
                "type": "elasticsearch",
                "uid": "iHcJcc-7z"
              },
              "hide": false,
              "metrics": [
                {
                  "field": "Jobs",
                  "id": "1",
                  "type": "sum"
                }
              ],
              "query": "Status: Staging AND UserGroup: lhcb_user",
              "refId": "A",
              "timeField": "timestamp"
            }
          ],
          "title": "Staging Jobs (ES)",
          "type": "timeseries"
        }
      ],
      "title": "UserGroup: lhcb_user",
      "type": "row"
    }
  ],
  "refresh": "",
  "schemaVersion": 38,
  "style": "dark",
  "tags": [],
  "templating": {
    "list": [
      {
        "current": {
          "selected": true,
          "text": [
            "JobSplitType",
            "JobGroup",
            "UserGroup",
            "Site",
            "User"
          ],
          "value": [
            "JobSplitType",
            "JobGroup",
            "UserGroup",
            "Site",
            "User"
          ]
        },
        "hide": 0,
        "includeAll": false,
        "multi": true,
        "name": "query0",
        "options": [
          {
            "selected": true,
            "text": "JobSplitType",
            "value": "JobSplitType"
          },
          {
            "selected": true,
            "text": "JobGroup",
            "value": "JobGroup"
          },
          {
            "selected": true,
            "text": "Site",
            "value": "Site"
          },
          {
            "selected": true,
            "text": "UserGroup",
            "value": "UserGroup"
          },
          {
            "selected": true,
            "text": "User",
            "value": "User"
          }
        ],
        "query": "JobSplitType,JobGroup,Site,UserGroup,User",
        "queryValue": "",
        "skipUrlSync": false,
        "type": "custom"
      }
    ]
  },
  "time": {
    "from": "now-24h",
    "to": "now"
  },
  "timepicker": {},
  "timezone": "browser",
  "title": "WMS Overview",
  "uid": "vBnTR3AVz",
  "version": 7,
  "weekStart": ""
}
